%YAML 1.1
%TAG !u! tag:unity3d.com,2011:
--- !u!1 &8807833756393969847
GameObject:
  m_ObjectHideFlags: 0
  m_CorrespondingSourceObject: {fileID: 0}
  m_PrefabInstance: {fileID: 0}
  m_PrefabAsset: {fileID: 0}
  serializedVersion: 6
  m_Component:
  - component: {fileID: 8807833756393970260}
  m_Layer: 0
  m_Name: Roads
  m_TagString: Untagged
  m_Icon: {fileID: 0}
  m_NavMeshLayer: 0
  m_StaticEditorFlags: 0
  m_IsActive: 1
--- !u!4 &8807833756393970260
Transform:
  m_ObjectHideFlags: 0
  m_CorrespondingSourceObject: {fileID: 0}
  m_PrefabInstance: {fileID: 0}
  m_PrefabAsset: {fileID: 0}
  m_GameObject: {fileID: 8807833756393969847}
  m_LocalRotation: {x: 0, y: 0, z: 0, w: 1}
  m_LocalPosition: {x: 0, y: 0, z: 0}
  m_LocalScale: {x: 1, y: 1, z: 1}
  m_Children:
  - {fileID: 8807833755761049259}
  - {fileID: 8807833757070242174}
  m_Father: {fileID: 0}
  m_RootOrder: 0
  m_LocalEulerAnglesHint: {x: 0, y: 0, z: 0}
--- !u!1001 &8807833755760911403
PrefabInstance:
  m_ObjectHideFlags: 0
  serializedVersion: 2
  m_Modification:
    m_TransformParent: {fileID: 8807833756393970260}
    m_Modifications:
    - target: {fileID: 400000, guid: d80c7433031fdee44bf3910c4b046ce7, type: 3}
      propertyPath: m_RootOrder
      value: 0
      objectReference: {fileID: 0}
    - target: {fileID: 400000, guid: d80c7433031fdee44bf3910c4b046ce7, type: 3}
      propertyPath: m_LocalScale.x
      value: 0.5
      objectReference: {fileID: 0}
    - target: {fileID: 400000, guid: d80c7433031fdee44bf3910c4b046ce7, type: 3}
      propertyPath: m_LocalScale.y
      value: 0.5
      objectReference: {fileID: 0}
    - target: {fileID: 400000, guid: d80c7433031fdee44bf3910c4b046ce7, type: 3}
      propertyPath: m_LocalScale.z
      value: 0.5
      objectReference: {fileID: 0}
    - target: {fileID: 400000, guid: d80c7433031fdee44bf3910c4b046ce7, type: 3}
      propertyPath: m_LocalPosition.x
      value: 5
      objectReference: {fileID: 0}
    - target: {fileID: 400000, guid: d80c7433031fdee44bf3910c4b046ce7, type: 3}
      propertyPath: m_LocalPosition.y
      value: 0
      objectReference: {fileID: 0}
    - target: {fileID: 400000, guid: d80c7433031fdee44bf3910c4b046ce7, type: 3}
      propertyPath: m_LocalPosition.z
      value: 2.5
      objectReference: {fileID: 0}
    - target: {fileID: 400000, guid: d80c7433031fdee44bf3910c4b046ce7, type: 3}
      propertyPath: m_LocalRotation.w
      value: 1
      objectReference: {fileID: 0}
    - target: {fileID: 400000, guid: d80c7433031fdee44bf3910c4b046ce7, type: 3}
      propertyPath: m_LocalRotation.x
      value: 0
      objectReference: {fileID: 0}
    - target: {fileID: 400000, guid: d80c7433031fdee44bf3910c4b046ce7, type: 3}
      propertyPath: m_LocalRotation.y
      value: -0
      objectReference: {fileID: 0}
    - target: {fileID: 400000, guid: d80c7433031fdee44bf3910c4b046ce7, type: 3}
      propertyPath: m_LocalRotation.z
      value: 0
      objectReference: {fileID: 0}
    m_RemovedComponents: []
  m_SourcePrefab: {fileID: 100100000, guid: d80c7433031fdee44bf3910c4b046ce7, type: 3}
--- !u!4 &8807833755761049259 stripped
Transform:
  m_CorrespondingSourceObject: {fileID: 400000, guid: d80c7433031fdee44bf3910c4b046ce7, type: 3}
  m_PrefabInstance: {fileID: 8807833755760911403}
  m_PrefabAsset: {fileID: 0}
--- !u!1001 &8807833757070109694
PrefabInstance:
  m_ObjectHideFlags: 0
  serializedVersion: 2
  m_Modification:
    m_TransformParent: {fileID: 8807833756393970260}
    m_Modifications:
    - target: {fileID: 400000, guid: d80c7433031fdee44bf3910c4b046ce7, type: 3}
      propertyPath: m_RootOrder
      value: 1
      objectReference: {fileID: 0}
    - target: {fileID: 400000, guid: d80c7433031fdee44bf3910c4b046ce7, type: 3}
      propertyPath: m_LocalScale.x
      value: 0.5
      objectReference: {fileID: 0}
    - target: {fileID: 400000, guid: d80c7433031fdee44bf3910c4b046ce7, type: 3}
      propertyPath: m_LocalScale.y
      value: 0.5
      objectReference: {fileID: 0}
    - target: {fileID: 400000, guid: d80c7433031fdee44bf3910c4b046ce7, type: 3}
      propertyPath: m_LocalScale.z
      value: 0.5
      objectReference: {fileID: 0}
    - target: {fileID: 400000, guid: d80c7433031fdee44bf3910c4b046ce7, type: 3}
      propertyPath: m_LocalPosition.x
      value: 2.5
      objectReference: {fileID: 0}
    - target: {fileID: 400000, guid: d80c7433031fdee44bf3910c4b046ce7, type: 3}
      propertyPath: m_LocalPosition.y
      value: 0
      objectReference: {fileID: 0}
    - target: {fileID: 400000, guid: d80c7433031fdee44bf3910c4b046ce7, type: 3}
      propertyPath: m_LocalPosition.z
      value: -7.5
      objectReference: {fileID: 0}
    - target: {fileID: 400000, guid: d80c7433031fdee44bf3910c4b046ce7, type: 3}
      propertyPath: m_LocalRotation.w
      value: -0.00000004371139
      objectReference: {fileID: 0}
    - target: {fileID: 400000, guid: d80c7433031fdee44bf3910c4b046ce7, type: 3}
      propertyPath: m_LocalRotation.x
      value: 0
      objectReference: {fileID: 0}
    - target: {fileID: 400000, guid: d80c7433031fdee44bf3910c4b046ce7, type: 3}
      propertyPath: m_LocalRotation.y
      value: 1
      objectReference: {fileID: 0}
    - target: {fileID: 400000, guid: d80c7433031fdee44bf3910c4b046ce7, type: 3}
      propertyPath: m_LocalRotation.z
      value: 0
      objectReference: {fileID: 0}
    m_RemovedComponents: []
  m_SourcePrefab: {fileID: 100100000, guid: d80c7433031fdee44bf3910c4b046ce7, type: 3}
--- !u!4 &8807833757070242174 stripped
Transform:
  m_CorrespondingSourceObject: {fileID: 400000, guid: d80c7433031fdee44bf3910c4b046ce7, type: 3}
  m_PrefabInstance: {fileID: 8807833757070109694}
  m_PrefabAsset: {fileID: 0}
